chr	int
1	/path/to/interval/chr1.interval_list
2	/path/to/interval/chr2.interval_list
3	/path/to/interval/chr3.interval_list
4	/path/to/interval/chr4.interval_list
5	/path/to/interval/chr5.interval_list
6	/path/to/interval/chr6.interval_list
7	/path/to/interval/chr7.interval_list
8	/path/to/interval/chr8.interval_list
9	/path/to/interval/chr9.interval_list
10	/path/to/interval/chr10.interval_list
11	/path/to/interval/chr11.interval_list
12	/path/to/interval/chr12.interval_list
13	/path/to/interval/chr13.interval_list
14	/path/to/interval/chr14.interval_list
15	/path/to/interval/chr15.interval_list
16	/path/to/interval/chr16.interval_list
17	/path/to/interval/chr17.interval_list
18	/path/to/interval/chr18.interval_list
19	/path/to/interval/chr19.interval_list
20	/path/to/interval/chr20.interval_list
21	/path/to/interval/chr21.interval_list
22	/path/to/interval/chr22.interval_list
X	/path/to/interval/chrX.interval_list
Y	/path/to/interval/chrY.interval_list
MT	/path/to/interval/chrMT.interval_list
GL000207.1	/path/to/interval/chrGL000207.1.interval_list
GL000226.1	/path/to/interval/chrGL000226.1.interval_list
GL000229.1	/path/to/interval/chrGL000229.1.interval_list
GL000231.1	/path/to/interval/chrGL000231.1.interval_list
GL000210.1	/path/to/interval/chrGL000210.1.interval_list
GL000239.1	/path/to/interval/chrGL000239.1.interval_list
GL000235.1	/path/to/interval/chrGL000235.1.interval_list
GL000201.1	/path/to/interval/chrGL000201.1.interval_list
GL000247.1	/path/to/interval/chrGL000247.1.interval_list
GL000245.1	/path/to/interval/chrGL000245.1.interval_list
GL000197.1	/path/to/interval/chrGL000197.1.interval_list
GL000203.1	/path/to/interval/chrGL000203.1.interval_list
GL000246.1	/path/to/interval/chrGL000246.1.interval_list
GL000249.1	/path/to/interval/chrGL000249.1.interval_list
GL000196.1	/path/to/interval/chrGL000196.1.interval_list
GL000248.1	/path/to/interval/chrGL000248.1.interval_list
GL000244.1	/path/to/interval/chrGL000244.1.interval_list
GL000238.1	/path/to/interval/chrGL000238.1.interval_list
GL000202.1	/path/to/interval/chrGL000202.1.interval_list
GL000234.1	/path/to/interval/chrGL000234.1.interval_list
GL000232.1	/path/to/interval/chrGL000232.1.interval_list
GL000206.1	/path/to/interval/chrGL000206.1.interval_list
GL000240.1	/path/to/interval/chrGL000240.1.interval_list
GL000236.1	/path/to/interval/chrGL000236.1.interval_list
GL000241.1	/path/to/interval/chrGL000241.1.interval_list
GL000243.1	/path/to/interval/chrGL000243.1.interval_list
GL000242.1	/path/to/interval/chrGL000242.1.interval_list
GL000230.1	/path/to/interval/chrGL000230.1.interval_list
GL000237.1	/path/to/interval/chrGL000237.1.interval_list
GL000233.1	/path/to/interval/chrGL000233.1.interval_list
GL000204.1	/path/to/interval/chrGL000204.1.interval_list
GL000198.1	/path/to/interval/chrGL000198.1.interval_list
GL000208.1	/path/to/interval/chrGL000208.1.interval_list
GL000191.1	/path/to/interval/chrGL000191.1.interval_list
GL000227.1	/path/to/interval/chrGL000227.1.interval_list
GL000228.1	/path/to/interval/chrGL000228.1.interval_list
GL000214.1	/path/to/interval/chrGL000214.1.interval_list
GL000221.1	/path/to/interval/chrGL000221.1.interval_list
GL000209.1	/path/to/interval/chrGL000209.1.interval_list
GL000218.1	/path/to/interval/chrGL000218.1.interval_list
GL000220.1	/path/to/interval/chrGL000220.1.interval_list
GL000213.1	/path/to/interval/chrGL000213.1.interval_list
GL000211.1	/path/to/interval/chrGL000211.1.interval_list
GL000199.1	/path/to/interval/chrGL000199.1.interval_list
GL000217.1	/path/to/interval/chrGL000217.1.interval_list
GL000216.1	/path/to/interval/chrGL000216.1.interval_list
GL000215.1	/path/to/interval/chrGL000215.1.interval_list
GL000205.1	/path/to/interval/chrGL000205.1.interval_list
GL000219.1	/path/to/interval/chrGL000219.1.interval_list
GL000224.1	/path/to/interval/chrGL000224.1.interval_list
GL000223.1	/path/to/interval/chrGL000223.1.interval_list
GL000195.1	/path/to/interval/chrGL000195.1.interval_list
GL000212.1	/path/to/interval/chrGL000212.1.interval_list
GL000222.1	/path/to/interval/chrGL000222.1.interval_list
GL000200.1	/path/to/interval/chrGL000200.1.interval_list
GL000193.1	/path/to/interval/chrGL000193.1.interval_list
GL000194.1	/path/to/interval/chrGL000194.1.interval_list
GL000225.1	/path/to/interval/chrGL000225.1.interval_list
GL000192.1	/path/to/interval/chrGL000192.1.interval_list
NC_007605	/path/to/interval/chrNC_007605.interval_list
hs37d5	/path/to/interval/chrhs37d5.interval_list
